NBA Data Cleaning
…
    # points per minute
    ppm = pts / mp
  )

Warning: There were 4 warnings in `dplyr::mutate()`.
The first warning was:
ℹ In argument: `date = as.Date(...)`.
Caused by warning:
!  18 failed to parse.
ℹ Run `dplyr::last_dplyr_warnings()` to see the 3 remaining warnings.

games_clean

# A tibble: 269 × 7
   player       date       opp      mp   pts home_away    ppm
   <chr>        <date>     <chr> <dbl> <dbl> <chr>      <dbl>
 1 Jayson Tatum 2024-10-22 NYK    30.3    37 ""         1.22 
 2 Jayson Tatum 2024-10-24 WAS    28.6    25 "@"        0.873
 3 Jayson Tatum 2024-10-26 DET    38.1    37 "@"        0.970
 4 Jayson Tatum 2024-10-28 MIL    36.4    15 ""         0.412
 5 Jayson Tatum 2024-10-30 IND    43.4    37 "@"        0.853
 6 Jayson Tatum NA         Opp    NA      NA ""        NA    
 7 Jayson Tatum 2024-11-01 CHO    35.6    32 "@"        0.898
 8 Jayson Tatum 2024-11-02 CHO    33.7    29 "@"        0.860
 9 Jayson Tatum 2024-11-04 ATL    30.5    28 "@"        0.919
10 Jayson Tatum 2024-11-06 GSW    36.8    32 ""         0.871
# ℹ 259 more rows
…
  # remove non-games
  dplyr::filter(!is.na(mp), !is.na(date)) |>

  dplyr::arrange(player, date) |>
  dplyr::group_by(player) |>
  dplyr::mutate(
    days_rest = as.numeric(date - dplyr::lag(date)),
    back_to_back = days_rest == 1
  ) |>
  dplyr::ungroup()

games_final

# A tibble: 178 × 9
   player    date       opp      mp   pts home_away   ppm days_rest back_to_back
   <chr>     <date>     <chr> <dbl> <dbl> <chr>     <dbl>     <dbl> <lgl>       
 1 Dejounte… 2024-10-23 CHI    30.0    14 ""        0.467        NA NA          
 2 Dejounte… 2024-11-27 TOR    25.0    14 ""        0.559        35 FALSE       
 3 Dejounte… 2024-11-29 MEM    33.2    21 "@"       0.632         2 FALSE       
 4 Dejounte… 2024-12-01 NYK    29.6    10 "@"       0.338         2 FALSE       
 5 Dejounte… 2024-12-02 ATL    38.1     7 "@"       0.184         1 TRUE        
 6 Dejounte… 2024-12-05 PHO    34.7    17 ""        0.490         3 FALSE       
 7 Dejounte… 2024-12-07 OKC    35.6    26 ""        0.731         2 FALSE       
 8 Dejounte… 2024-12-08 SAS    33.6    18 "@"       0.535         1 TRUE        
 9 Dejounte… 2024-12-12 SAC    35.2    20 ""        0.569         4 FALSE       
10 Dejounte… 2024-12-15 IND    34.7    19 "@"       0.547         3 FALSE       
# ℹ 168 more rows
…
