NBA Data Import
…
Import Tatum game log

Below is Jayson Tatum’s raw game log table scraped from Basketball Reference.

url <- "https://www.basketball-reference.com/players/t/tatumja01/gamelog/2025"

tatum_page <- read_html(url)

tatum_tables <- html_elements(tatum_page, "table")

tatum_game_log <- html_table(tatum_tables[[8]])

tatum_game_log

# A tibble: 89 × 34
   Rk    Gcar  Gtm   Date       Team  ``    Opp   Result GS    MP    FG    FGA  
   <chr> <chr> <chr> <chr>      <chr> <chr> <chr> <chr>  <chr> <chr> <chr> <chr>
 1 1     514   1     2024-10-22 BOS   ""    NYK   W, 13… *     30:18 14    18   
 2 2     515   2     2024-10-24 BOS   "@"   WAS   W, 12… *     28:39 9     20   
 3 3     516   3     2024-10-26 BOS   "@"   DET   W, 12… *     38:08 12    26   
 4 4     517   4     2024-10-28 BOS   ""    MIL   W, 11… *     36:25 6     16   
 5 5     518   5     2024-10-30 BOS   "@"   IND   L, 13… *     43:22 10    25   
 6 Rk    Gcar  Gtm   Date       Team  ""    Opp   Result GS    MP    FG    FGA  
 7 6     519   6     2024-11-01 BOS   "@"   CHO   W, 12… *     35:38 9     19   
 8 7     520   7     2024-11-02 BOS   "@"   CHO   W, 11… *     33:44 7     15   
 9 8     521   8     2024-11-04 BOS   "@"   ATL   W, 12… *     30:29 10    21   
10 9     522   9     2024-11-06 BOS   ""    GSW   L, 11… *     36:45 10    20   
# ℹ 79 more rows
# ℹ 22 more variables: `FG%` <chr>, `3P` <chr>, `3PA` <chr>, `3P%` <chr>,
#   `2P` <chr>, `2PA` <chr>, `2P%` <chr>, `eFG%` <chr>, FT <chr>, FTA <chr>,
#   `FT%` <chr>, ORB <chr>, DRB <chr>, TRB <chr>, AST <chr>, STL <chr>,
#   BLK <chr>, TOV <chr>, PF <chr>, PTS <chr>, GmSc <chr>, `+/-` <chr>
…
Import Murray game log

Below is Dejounte Murray’s raw game log table scraped from Basketball Reference.

url <- "https://www.basketball-reference.com/players/m/murrade01/gamelog/2025"

murray_page <- read_html(url)

murray_tables <- html_elements(murray_page, "table")

murray_game_log <- html_table(murray_tables[[8]])

murray_game_log

# A tibble: 89 × 34
   Rk    Gcar   Gtm   Date      Team  ``    Opp   Result GS    MP    FG    FGA  
   <chr> <chr>  <chr> <chr>     <chr> <chr> <chr> <chr>  <chr> <chr> <chr> <chr>
 1 1     "473"  1     2024-10-… NOP   ""    CHI   W, 12… *     29:59 4     15   
 2 1     ""     2     2024-10-… NOP   "@"   POR   W, 10… Inac… Inac… Inac… Inac…
 3 1     ""     3     2024-10-… NOP   "@"   POR   L, 10… Inac… Inac… Inac… Inac…
 4 1     ""     4     2024-10-… NOP   "@"   GSW   L, 10… Inac… Inac… Inac… Inac…
 5 1     ""     5     2024-10-… NOP   "@"   GSW   L, 89… Inac… Inac… Inac… Inac…
 6 Rk    "Gcar" Gtm   Date      Team  ""    Opp   Result GS    MP    FG    FGA  
 7 1     ""     6     2024-11-… NOP   ""    IND   W, 12… Inac… Inac… Inac… Inac…
 8 1     ""     7     2024-11-… NOP   ""    ATL   L, 11… Inac… Inac… Inac… Inac…
 9 1     ""     8     2024-11-… NOP   ""    POR   L, 10… Inac… Inac… Inac… Inac…
10 1     ""     9     2024-11-… NOP   ""    CLE   L, 12… Inac… Inac… Inac… Inac…
# ℹ 79 more rows
# ℹ 22 more variables: `FG%` <chr>, `3P` <chr>, `3PA` <chr>, `3P%` <chr>,
#   `2P` <chr>, `2PA` <chr>, `2P%` <chr>, `eFG%` <chr>, FT <chr>, FTA <chr>,
#   `FT%` <chr>, ORB <chr>, DRB <chr>, TRB <chr>, AST <chr>, STL <chr>,
#   BLK <chr>, TOV <chr>, PF <chr>, PTS <chr>, GmSc <chr>, `+/-` <chr>
…
Import Grimes game log

Below is Quentin Grimes’s raw game log table scraped from Basketball Reference.

url <- "https://www.basketball-reference.com/players/g/grimequ01/gamelog/2025"

grimes_page <- read_html(url)

grimes_tables <- html_elements(grimes_page, "table")

grimes_game_log <- html_table(grimes_tables[[8]])

grimes_game_log

# A tibble: 91 × 34
   Rk    Gcar  Gtm   Date       Team  ``    Opp   Result GS    MP    FG    FGA  
   <chr> <chr> <chr> <chr>      <chr> <chr> <chr> <chr>  <chr> <chr> <chr> <chr>
 1 1     169   1     2024-10-24 DAL   ""    SAS   W, 12… ""    14:59 1     6    
 2 2     170   2     2024-10-26 DAL   "@"   PHO   L, 10… ""    05:46 0     0    
 3 3     171   3     2024-10-28 DAL   ""    UTA   W, 11… ""    12:48 1     4    
 4 4     172   4     2024-10-29 DAL   "@"   MIN   W, 12… ""    12:09 3     5    
 5 5     173   5     2024-10-31 DAL   ""    HOU   L, 10… ""    10:11 0     1    
 6 Rk    Gcar  Gtm   Date       Team  ""    Opp   Result "GS"  MP    FG    FGA  
 7 6     174   6     2024-11-03 DAL   ""    ORL   W, 10… ""    17:27 2     4    
 8 7     175   7     2024-11-04 DAL   ""    IND   L, 12… ""    10:03 0     1    
 9 8     176   8     2024-11-06 DAL   ""    CHI   W, 11… ""    15:40 3     6    
10 9     177   9     2024-11-08 DAL   ""    PHO   L, 11… ""    09:21 1     1    
# ℹ 81 more rows
# ℹ 22 more variables: `FG%` <chr>, `3P` <chr>, `3PA` <chr>, `3P%` <chr>,
#   `2P` <chr>, `2PA` <chr>, `2P%` <chr>, `eFG%` <chr>, FT <chr>, FTA <chr>,
#   `FT%` <chr>, ORB <chr>, DRB <chr>, TRB <chr>, AST <chr>, STL <chr>,
#   BLK <chr>, TOV <chr>, PF <chr>, PTS <chr>, GmSc <chr>, `+/-` <chr>
…
